%TF.GenerationSoftware,KiCad,Pcbnew,6.0.2+dfsg-1*%
%TF.CreationDate,2022-03-09T15:49:59+01:00*%
%TF.ProjectId,MMA_DIY,4d4d415f-4449-4592-9e6b-696361645f70,0.0.0*%
%TF.SameCoordinates,Original*%
%TF.FileFunction,Legend,Top*%
%TF.FilePolarity,Positive*%
%FSLAX46Y46*%
G04 Gerber Fmt 4.6, Leading zero omitted, Abs format (unit mm)*
G04 Created by KiCad (PCBNEW 6.0.2+dfsg-1) date 2022-03-09 15:49:59*
%MOMM*%
%LPD*%
G01*
G04 APERTURE LIST*
%ADD10C,0.150000*%
%ADD11C,0.120000*%
G04 APERTURE END LIST*
D10*
%TO.C,C18*%
X136857142Y-118925357D02*
X136904761Y-118972976D01*
X136952380Y-119115833D01*
X136952380Y-119211071D01*
X136904761Y-119353928D01*
X136809523Y-119449166D01*
X136714285Y-119496785D01*
X136523809Y-119544404D01*
X136380952Y-119544404D01*
X136190476Y-119496785D01*
X136095238Y-119449166D01*
X136000000Y-119353928D01*
X135952380Y-119211071D01*
X135952380Y-119115833D01*
X136000000Y-118972976D01*
X136047619Y-118925357D01*
X136952380Y-117972976D02*
X136952380Y-118544404D01*
X136952380Y-118258690D02*
X135952380Y-118258690D01*
X136095238Y-118353928D01*
X136190476Y-118449166D01*
X136238095Y-118544404D01*
X136380952Y-117401547D02*
X136333333Y-117496785D01*
X136285714Y-117544404D01*
X136190476Y-117592023D01*
X136142857Y-117592023D01*
X136047619Y-117544404D01*
X136000000Y-117496785D01*
X135952380Y-117401547D01*
X135952380Y-117211071D01*
X136000000Y-117115833D01*
X136047619Y-117068214D01*
X136142857Y-117020595D01*
X136190476Y-117020595D01*
X136285714Y-117068214D01*
X136333333Y-117115833D01*
X136380952Y-117211071D01*
X136380952Y-117401547D01*
X136428571Y-117496785D01*
X136476190Y-117544404D01*
X136571428Y-117592023D01*
X136761904Y-117592023D01*
X136857142Y-117544404D01*
X136904761Y-117496785D01*
X136952380Y-117401547D01*
X136952380Y-117211071D01*
X136904761Y-117115833D01*
X136857142Y-117068214D01*
X136761904Y-117020595D01*
X136571428Y-117020595D01*
X136476190Y-117068214D01*
X136428571Y-117115833D01*
X136380952Y-117211071D01*
%TO.C,J2*%
X120102380Y-82285833D02*
X120816666Y-82285833D01*
X120959523Y-82333452D01*
X121054761Y-82428690D01*
X121102380Y-82571547D01*
X121102380Y-82666785D01*
X120197619Y-81857261D02*
X120150000Y-81809642D01*
X120102380Y-81714404D01*
X120102380Y-81476309D01*
X120150000Y-81381071D01*
X120197619Y-81333452D01*
X120292857Y-81285833D01*
X120388095Y-81285833D01*
X120530952Y-81333452D01*
X121102380Y-81904880D01*
X121102380Y-81285833D01*
%TO.C,RV3*%
X165552380Y-119975238D02*
X165076190Y-120308571D01*
X165552380Y-120546666D02*
X164552380Y-120546666D01*
X164552380Y-120165714D01*
X164600000Y-120070476D01*
X164647619Y-120022857D01*
X164742857Y-119975238D01*
X164885714Y-119975238D01*
X164980952Y-120022857D01*
X165028571Y-120070476D01*
X165076190Y-120165714D01*
X165076190Y-120546666D01*
X164552380Y-119689523D02*
X165552380Y-119356190D01*
X164552380Y-119022857D01*
X164552380Y-118784761D02*
X164552380Y-118165714D01*
X164933333Y-118499047D01*
X164933333Y-118356190D01*
X164980952Y-118260952D01*
X165028571Y-118213333D01*
X165123809Y-118165714D01*
X165361904Y-118165714D01*
X165457142Y-118213333D01*
X165504761Y-118260952D01*
X165552380Y-118356190D01*
X165552380Y-118641904D01*
X165504761Y-118737142D01*
X165457142Y-118784761D01*
%TO.C,U1*%
X133892380Y-71146070D02*
X134701904Y-71146070D01*
X134797142Y-71098451D01*
X134844761Y-71050832D01*
X134892380Y-70955594D01*
X134892380Y-70765118D01*
X134844761Y-70669880D01*
X134797142Y-70622261D01*
X134701904Y-70574642D01*
X133892380Y-70574642D01*
X134892380Y-69574642D02*
X134892380Y-70146070D01*
X134892380Y-69860356D02*
X133892380Y-69860356D01*
X134035238Y-69955594D01*
X134130476Y-70050832D01*
X134178095Y-70146070D01*
%TO.C,U3*%
X144112380Y-81359404D02*
X144921904Y-81359404D01*
X145017142Y-81311785D01*
X145064761Y-81264166D01*
X145112380Y-81168928D01*
X145112380Y-80978452D01*
X145064761Y-80883214D01*
X145017142Y-80835595D01*
X144921904Y-80787976D01*
X144112380Y-80787976D01*
X144112380Y-80407023D02*
X144112380Y-79787976D01*
X144493333Y-80121309D01*
X144493333Y-79978452D01*
X144540952Y-79883214D01*
X144588571Y-79835595D01*
X144683809Y-79787976D01*
X144921904Y-79787976D01*
X145017142Y-79835595D01*
X145064761Y-79883214D01*
X145112380Y-79978452D01*
X145112380Y-80264166D01*
X145064761Y-80359404D01*
X145017142Y-80407023D01*
%TO.C,RV1*%
X165812380Y-72945238D02*
X165336190Y-73278571D01*
X165812380Y-73516666D02*
X164812380Y-73516666D01*
X164812380Y-73135714D01*
X164860000Y-73040476D01*
X164907619Y-72992857D01*
X165002857Y-72945238D01*
X165145714Y-72945238D01*
X165240952Y-72992857D01*
X165288571Y-73040476D01*
X165336190Y-73135714D01*
X165336190Y-73516666D01*
X164812380Y-72659523D02*
X165812380Y-72326190D01*
X164812380Y-71992857D01*
X165812380Y-71135714D02*
X165812380Y-71707142D01*
X165812380Y-71421428D02*
X164812380Y-71421428D01*
X164955238Y-71516666D01*
X165050476Y-71611904D01*
X165098095Y-71707142D01*
%TO.C,C1*%
X129897142Y-66206666D02*
X129944761Y-66254285D01*
X129992380Y-66397142D01*
X129992380Y-66492380D01*
X129944761Y-66635238D01*
X129849523Y-66730476D01*
X129754285Y-66778095D01*
X129563809Y-66825714D01*
X129420952Y-66825714D01*
X129230476Y-66778095D01*
X129135238Y-66730476D01*
X129040000Y-66635238D01*
X128992380Y-66492380D01*
X128992380Y-66397142D01*
X129040000Y-66254285D01*
X129087619Y-66206666D01*
X129992380Y-65254285D02*
X129992380Y-65825714D01*
X129992380Y-65540000D02*
X128992380Y-65540000D01*
X129135238Y-65635238D01*
X129230476Y-65730476D01*
X129278095Y-65825714D01*
%TO.C,U5*%
X174727380Y-104901904D02*
X175536904Y-104901904D01*
X175632142Y-104854285D01*
X175679761Y-104806666D01*
X175727380Y-104711428D01*
X175727380Y-104520952D01*
X175679761Y-104425714D01*
X175632142Y-104378095D01*
X175536904Y-104330476D01*
X174727380Y-104330476D01*
X174727380Y-103378095D02*
X174727380Y-103854285D01*
X175203571Y-103901904D01*
X175155952Y-103854285D01*
X175108333Y-103759047D01*
X175108333Y-103520952D01*
X175155952Y-103425714D01*
X175203571Y-103378095D01*
X175298809Y-103330476D01*
X175536904Y-103330476D01*
X175632142Y-103378095D01*
X175679761Y-103425714D01*
X175727380Y-103520952D01*
X175727380Y-103759047D01*
X175679761Y-103854285D01*
X175632142Y-103901904D01*
%TO.C,C10*%
X122847142Y-93965357D02*
X122894761Y-94012976D01*
X122942380Y-94155833D01*
X122942380Y-94251071D01*
X122894761Y-94393928D01*
X122799523Y-94489166D01*
X122704285Y-94536785D01*
X122513809Y-94584404D01*
X122370952Y-94584404D01*
X122180476Y-94536785D01*
X122085238Y-94489166D01*
X121990000Y-94393928D01*
X121942380Y-94251071D01*
X121942380Y-94155833D01*
X121990000Y-94012976D01*
X122037619Y-93965357D01*
X122942380Y-93012976D02*
X122942380Y-93584404D01*
X122942380Y-93298690D02*
X121942380Y-93298690D01*
X122085238Y-93393928D01*
X122180476Y-93489166D01*
X122228095Y-93584404D01*
X121942380Y-92393928D02*
X121942380Y-92298690D01*
X121990000Y-92203452D01*
X122037619Y-92155833D01*
X122132857Y-92108214D01*
X122323333Y-92060595D01*
X122561428Y-92060595D01*
X122751904Y-92108214D01*
X122847142Y-92155833D01*
X122894761Y-92203452D01*
X122942380Y-92298690D01*
X122942380Y-92393928D01*
X122894761Y-92489166D01*
X122847142Y-92536785D01*
X122751904Y-92584404D01*
X122561428Y-92632023D01*
X122323333Y-92632023D01*
X122132857Y-92584404D01*
X122037619Y-92536785D01*
X121990000Y-92489166D01*
X121942380Y-92393928D01*
%TO.C,C20*%
X150217142Y-103512857D02*
X150264761Y-103560476D01*
X150312380Y-103703333D01*
X150312380Y-103798571D01*
X150264761Y-103941428D01*
X150169523Y-104036666D01*
X150074285Y-104084285D01*
X149883809Y-104131904D01*
X149740952Y-104131904D01*
X149550476Y-104084285D01*
X149455238Y-104036666D01*
X149360000Y-103941428D01*
X149312380Y-103798571D01*
X149312380Y-103703333D01*
X149360000Y-103560476D01*
X149407619Y-103512857D01*
X149407619Y-103131904D02*
X149360000Y-103084285D01*
X149312380Y-102989047D01*
X149312380Y-102750952D01*
X149360000Y-102655714D01*
X149407619Y-102608095D01*
X149502857Y-102560476D01*
X149598095Y-102560476D01*
X149740952Y-102608095D01*
X150312380Y-103179523D01*
X150312380Y-102560476D01*
X149312380Y-101941428D02*
X149312380Y-101846190D01*
X149360000Y-101750952D01*
X149407619Y-101703333D01*
X149502857Y-101655714D01*
X149693333Y-101608095D01*
X149931428Y-101608095D01*
X150121904Y-101655714D01*
X150217142Y-101703333D01*
X150264761Y-101750952D01*
X150312380Y-101846190D01*
X150312380Y-101941428D01*
X150264761Y-102036666D01*
X150217142Y-102084285D01*
X150121904Y-102131904D01*
X149931428Y-102179523D01*
X149693333Y-102179523D01*
X149502857Y-102131904D01*
X149407619Y-102084285D01*
X149360000Y-102036666D01*
X149312380Y-101941428D01*
%TO.C,U7*%
X149327380Y-118304404D02*
X150136904Y-118304404D01*
X150232142Y-118256785D01*
X150279761Y-118209166D01*
X150327380Y-118113928D01*
X150327380Y-117923452D01*
X150279761Y-117828214D01*
X150232142Y-117780595D01*
X150136904Y-117732976D01*
X149327380Y-117732976D01*
X149327380Y-117352023D02*
X149327380Y-116685357D01*
X150327380Y-117113928D01*
%TO.C,U2*%
X133892380Y-94084404D02*
X134701904Y-94084404D01*
X134797142Y-94036785D01*
X134844761Y-93989166D01*
X134892380Y-93893928D01*
X134892380Y-93703452D01*
X134844761Y-93608214D01*
X134797142Y-93560595D01*
X134701904Y-93512976D01*
X133892380Y-93512976D01*
X133987619Y-93084404D02*
X133940000Y-93036785D01*
X133892380Y-92941547D01*
X133892380Y-92703452D01*
X133940000Y-92608214D01*
X133987619Y-92560595D01*
X134082857Y-92512976D01*
X134178095Y-92512976D01*
X134320952Y-92560595D01*
X134892380Y-93132023D01*
X134892380Y-92512976D01*
%TO.C,U6*%
X162012380Y-104901904D02*
X162821904Y-104901904D01*
X162917142Y-104854285D01*
X162964761Y-104806666D01*
X163012380Y-104711428D01*
X163012380Y-104520952D01*
X162964761Y-104425714D01*
X162917142Y-104378095D01*
X162821904Y-104330476D01*
X162012380Y-104330476D01*
X162012380Y-103425714D02*
X162012380Y-103616190D01*
X162060000Y-103711428D01*
X162107619Y-103759047D01*
X162250476Y-103854285D01*
X162440952Y-103901904D01*
X162821904Y-103901904D01*
X162917142Y-103854285D01*
X162964761Y-103806666D01*
X163012380Y-103711428D01*
X163012380Y-103520952D01*
X162964761Y-103425714D01*
X162917142Y-103378095D01*
X162821904Y-103330476D01*
X162583809Y-103330476D01*
X162488571Y-103378095D01*
X162440952Y-103425714D01*
X162393333Y-103520952D01*
X162393333Y-103711428D01*
X162440952Y-103806666D01*
X162488571Y-103854285D01*
X162583809Y-103901904D01*
%TO.C,C21*%
X132267142Y-103058008D02*
X132314761Y-103105627D01*
X132362380Y-103248484D01*
X132362380Y-103343722D01*
X132314761Y-103486579D01*
X132219523Y-103581817D01*
X132124285Y-103629436D01*
X131933809Y-103677055D01*
X131790952Y-103677055D01*
X131600476Y-103629436D01*
X131505238Y-103581817D01*
X131410000Y-103486579D01*
X131362380Y-103343722D01*
X131362380Y-103248484D01*
X131410000Y-103105627D01*
X131457619Y-103058008D01*
X131457619Y-102677055D02*
X131410000Y-102629436D01*
X131362380Y-102534198D01*
X131362380Y-102296103D01*
X131410000Y-102200865D01*
X131457619Y-102153246D01*
X131552857Y-102105627D01*
X131648095Y-102105627D01*
X131790952Y-102153246D01*
X132362380Y-102724674D01*
X132362380Y-102105627D01*
X132362380Y-101153246D02*
X132362380Y-101724674D01*
X132362380Y-101438960D02*
X131362380Y-101438960D01*
X131505238Y-101534198D01*
X131600476Y-101629436D01*
X131648095Y-101724674D01*
%TO.C,C19*%
X143257142Y-111305357D02*
X143304761Y-111352976D01*
X143352380Y-111495833D01*
X143352380Y-111591071D01*
X143304761Y-111733928D01*
X143209523Y-111829166D01*
X143114285Y-111876785D01*
X142923809Y-111924404D01*
X142780952Y-111924404D01*
X142590476Y-111876785D01*
X142495238Y-111829166D01*
X142400000Y-111733928D01*
X142352380Y-111591071D01*
X142352380Y-111495833D01*
X142400000Y-111352976D01*
X142447619Y-111305357D01*
X143352380Y-110352976D02*
X143352380Y-110924404D01*
X143352380Y-110638690D02*
X142352380Y-110638690D01*
X142495238Y-110733928D01*
X142590476Y-110829166D01*
X142638095Y-110924404D01*
X143352380Y-109876785D02*
X143352380Y-109686309D01*
X143304761Y-109591071D01*
X143257142Y-109543452D01*
X143114285Y-109448214D01*
X142923809Y-109400595D01*
X142542857Y-109400595D01*
X142447619Y-109448214D01*
X142400000Y-109495833D01*
X142352380Y-109591071D01*
X142352380Y-109781547D01*
X142400000Y-109876785D01*
X142447619Y-109924404D01*
X142542857Y-109972023D01*
X142780952Y-109972023D01*
X142876190Y-109924404D01*
X142923809Y-109876785D01*
X142971428Y-109781547D01*
X142971428Y-109591071D01*
X142923809Y-109495833D01*
X142876190Y-109448214D01*
X142780952Y-109400595D01*
%TO.C,J1*%
X134742380Y-80955833D02*
X135456666Y-80955833D01*
X135599523Y-81003452D01*
X135694761Y-81098690D01*
X135742380Y-81241547D01*
X135742380Y-81336785D01*
X135742380Y-79955833D02*
X135742380Y-80527261D01*
X135742380Y-80241547D02*
X134742380Y-80241547D01*
X134885238Y-80336785D01*
X134980476Y-80432023D01*
X135028095Y-80527261D01*
%TO.C,C2*%
X131167142Y-99226666D02*
X131214761Y-99274285D01*
X131262380Y-99417142D01*
X131262380Y-99512380D01*
X131214761Y-99655238D01*
X131119523Y-99750476D01*
X131024285Y-99798095D01*
X130833809Y-99845714D01*
X130690952Y-99845714D01*
X130500476Y-99798095D01*
X130405238Y-99750476D01*
X130310000Y-99655238D01*
X130262380Y-99512380D01*
X130262380Y-99417142D01*
X130310000Y-99274285D01*
X130357619Y-99226666D01*
X130357619Y-98845714D02*
X130310000Y-98798095D01*
X130262380Y-98702857D01*
X130262380Y-98464761D01*
X130310000Y-98369523D01*
X130357619Y-98321904D01*
X130452857Y-98274285D01*
X130548095Y-98274285D01*
X130690952Y-98321904D01*
X131262380Y-98893333D01*
X131262380Y-98274285D01*
%TO.C,U4*%
X182122380Y-79501904D02*
X182931904Y-79501904D01*
X183027142Y-79454285D01*
X183074761Y-79406666D01*
X183122380Y-79311428D01*
X183122380Y-79120952D01*
X183074761Y-79025714D01*
X183027142Y-78978095D01*
X182931904Y-78930476D01*
X182122380Y-78930476D01*
X182455714Y-78025714D02*
X183122380Y-78025714D01*
X182074761Y-78263809D02*
X182789047Y-78501904D01*
X182789047Y-77882857D01*
%TO.C,LS1*%
X154122380Y-92082857D02*
X154122380Y-92559047D01*
X153122380Y-92559047D01*
X154074761Y-91797142D02*
X154122380Y-91654285D01*
X154122380Y-91416190D01*
X154074761Y-91320952D01*
X154027142Y-91273333D01*
X153931904Y-91225714D01*
X153836666Y-91225714D01*
X153741428Y-91273333D01*
X153693809Y-91320952D01*
X153646190Y-91416190D01*
X153598571Y-91606666D01*
X153550952Y-91701904D01*
X153503333Y-91749523D01*
X153408095Y-91797142D01*
X153312857Y-91797142D01*
X153217619Y-91749523D01*
X153170000Y-91701904D01*
X153122380Y-91606666D01*
X153122380Y-91368571D01*
X153170000Y-91225714D01*
X154122380Y-90273333D02*
X154122380Y-90844761D01*
X154122380Y-90559047D02*
X153122380Y-90559047D01*
X153265238Y-90654285D01*
X153360476Y-90749523D01*
X153408095Y-90844761D01*
%TO.C,RV2*%
X164282380Y-90765238D02*
X163806190Y-91098571D01*
X164282380Y-91336666D02*
X163282380Y-91336666D01*
X163282380Y-90955714D01*
X163330000Y-90860476D01*
X163377619Y-90812857D01*
X163472857Y-90765238D01*
X163615714Y-90765238D01*
X163710952Y-90812857D01*
X163758571Y-90860476D01*
X163806190Y-90955714D01*
X163806190Y-91336666D01*
X163282380Y-90479523D02*
X164282380Y-90146190D01*
X163282380Y-89812857D01*
X163377619Y-89527142D02*
X163330000Y-89479523D01*
X163282380Y-89384285D01*
X163282380Y-89146190D01*
X163330000Y-89050952D01*
X163377619Y-89003333D01*
X163472857Y-88955714D01*
X163568095Y-88955714D01*
X163710952Y-89003333D01*
X164282380Y-89574761D01*
X164282380Y-88955714D01*
%TO.C,C9*%
X122847142Y-71080832D02*
X122894761Y-71128451D01*
X122942380Y-71271308D01*
X122942380Y-71366546D01*
X122894761Y-71509404D01*
X122799523Y-71604642D01*
X122704285Y-71652261D01*
X122513809Y-71699880D01*
X122370952Y-71699880D01*
X122180476Y-71652261D01*
X122085238Y-71604642D01*
X121990000Y-71509404D01*
X121942380Y-71366546D01*
X121942380Y-71271308D01*
X121990000Y-71128451D01*
X122037619Y-71080832D01*
X122942380Y-70604642D02*
X122942380Y-70414166D01*
X122894761Y-70318927D01*
X122847142Y-70271308D01*
X122704285Y-70176070D01*
X122513809Y-70128451D01*
X122132857Y-70128451D01*
X122037619Y-70176070D01*
X121990000Y-70223689D01*
X121942380Y-70318927D01*
X121942380Y-70509404D01*
X121990000Y-70604642D01*
X122037619Y-70652261D01*
X122132857Y-70699880D01*
X122370952Y-70699880D01*
X122466190Y-70652261D01*
X122513809Y-70604642D01*
X122561428Y-70509404D01*
X122561428Y-70318927D01*
X122513809Y-70223689D01*
X122466190Y-70176070D01*
X122370952Y-70128451D01*
%TO.C,SW1*%
X128374761Y-83285833D02*
X128422380Y-83142976D01*
X128422380Y-82904880D01*
X128374761Y-82809642D01*
X128327142Y-82762023D01*
X128231904Y-82714404D01*
X128136666Y-82714404D01*
X128041428Y-82762023D01*
X127993809Y-82809642D01*
X127946190Y-82904880D01*
X127898571Y-83095357D01*
X127850952Y-83190595D01*
X127803333Y-83238214D01*
X127708095Y-83285833D01*
X127612857Y-83285833D01*
X127517619Y-83238214D01*
X127470000Y-83190595D01*
X127422380Y-83095357D01*
X127422380Y-82857261D01*
X127470000Y-82714404D01*
X127422380Y-82381071D02*
X128422380Y-82142976D01*
X127708095Y-81952500D01*
X128422380Y-81762023D01*
X127422380Y-81523928D01*
X128422380Y-80619166D02*
X128422380Y-81190595D01*
X128422380Y-80904880D02*
X127422380Y-80904880D01*
X127565238Y-81000119D01*
X127660476Y-81095357D01*
X127708095Y-81190595D01*
D11*
%TO.C,C18*%
X138504437Y-120542500D02*
X138640000Y-120542500D01*
X137440000Y-116022500D02*
X138640000Y-116022500D01*
X137440000Y-119478063D02*
X137440000Y-116022500D01*
X141960000Y-116022500D02*
X140760000Y-116022500D01*
X138504437Y-120542500D02*
X137440000Y-119478063D01*
X140895563Y-120542500D02*
X140760000Y-120542500D01*
X137890000Y-121032500D02*
X138390000Y-121032500D01*
X141960000Y-119478063D02*
X141960000Y-116022500D01*
X140895563Y-120542500D02*
X141960000Y-119478063D01*
X138140000Y-121282500D02*
X138140000Y-120782500D01*
%TO.C,J2*%
X124350000Y-75292500D02*
X121850000Y-75292500D01*
X124460000Y-87812500D02*
X124460000Y-88312500D01*
X124460000Y-75592500D02*
X124460000Y-76092500D01*
X122150000Y-75592500D02*
X122150000Y-88312500D01*
X126170000Y-88312500D02*
X126170000Y-75592500D01*
X125670000Y-87812500D02*
X124460000Y-87812500D01*
X123650000Y-76592500D02*
X122150000Y-76592500D01*
X123650000Y-75592500D02*
X123650000Y-76592500D01*
X122150000Y-88312500D02*
X126170000Y-88312500D01*
X123650000Y-87312500D02*
X122150000Y-87312500D01*
X121850000Y-75292500D02*
X121850000Y-77792500D01*
X124460000Y-76092500D02*
X125670000Y-76092500D01*
X125670000Y-76092500D02*
X125670000Y-87812500D01*
X126170000Y-75592500D02*
X122150000Y-75592500D01*
X123650000Y-88312500D02*
X123650000Y-87312500D01*
%TO.C,RV3*%
X152330000Y-122360000D02*
X162550000Y-122360000D01*
X161550000Y-119840000D02*
X161550000Y-118340000D01*
X152830000Y-121860000D02*
X152830000Y-120650000D01*
X162550000Y-118340000D02*
X152330000Y-118340000D01*
X152830000Y-120650000D02*
X152330000Y-120650000D01*
X152330000Y-118340000D02*
X152330000Y-122360000D01*
X162550000Y-120650000D02*
X162050000Y-120650000D01*
X162050000Y-120650000D02*
X162050000Y-121860000D01*
X162550000Y-119840000D02*
X161550000Y-119840000D01*
X162850000Y-118040000D02*
X160350000Y-118040000D01*
X162550000Y-122360000D02*
X162550000Y-118340000D01*
X153330000Y-119840000D02*
X153330000Y-118340000D01*
X162850000Y-120540000D02*
X162850000Y-118040000D01*
X162050000Y-121860000D02*
X152830000Y-121860000D01*
X152330000Y-119840000D02*
X153330000Y-119840000D01*
%TO.C,U1*%
X136340000Y-72364166D02*
X136190000Y-72514166D01*
X136990000Y-71664166D02*
X136990000Y-69064166D01*
X135240000Y-68264166D02*
X136190000Y-68264166D01*
X136340000Y-68414166D02*
X136190000Y-68264166D01*
X136990000Y-69064166D02*
X136740000Y-68814166D01*
X136990000Y-71664166D02*
X136740000Y-71914166D01*
X136190000Y-72514166D02*
X135240000Y-72514166D01*
%TO.C,U3*%
X145660000Y-78347500D02*
X145660000Y-79597500D01*
X145660000Y-81597500D02*
X145660000Y-82847500D01*
X155940000Y-78347500D02*
X145660000Y-78347500D01*
X145660000Y-82847500D02*
X155940000Y-82847500D01*
X155940000Y-82847500D02*
X155940000Y-78347500D01*
X145660000Y-81597500D02*
G75*
G03*
X145660000Y-79597500I0J1000000D01*
G01*
%TO.C,RV1*%
X162560000Y-76960000D02*
X162560000Y-77460000D01*
X159950000Y-66940000D02*
X159950000Y-69440000D01*
X161750000Y-76460000D02*
X160250000Y-76460000D01*
X161750000Y-68240000D02*
X160250000Y-68240000D01*
X162560000Y-67740000D02*
X163770000Y-67740000D01*
X163770000Y-76960000D02*
X162560000Y-76960000D01*
X164270000Y-77460000D02*
X164270000Y-67240000D01*
X162450000Y-66940000D02*
X159950000Y-66940000D01*
X161750000Y-67240000D02*
X161750000Y-68240000D01*
X163770000Y-67740000D02*
X163770000Y-76960000D01*
X162560000Y-67240000D02*
X162560000Y-67740000D01*
X164270000Y-67240000D02*
X160250000Y-67240000D01*
X161750000Y-77460000D02*
X161750000Y-76460000D01*
X160250000Y-77460000D02*
X164270000Y-77460000D01*
X160250000Y-67240000D02*
X160250000Y-77460000D01*
%TO.C,C1*%
X133030000Y-72109729D02*
X133030000Y-68654166D01*
X128960000Y-73664166D02*
X129460000Y-73664166D01*
X133030000Y-68654166D02*
X131830000Y-68654166D01*
X128510000Y-72109729D02*
X128510000Y-68654166D01*
X129574437Y-73174166D02*
X129710000Y-73174166D01*
X128510000Y-68654166D02*
X129710000Y-68654166D01*
X129210000Y-73914166D02*
X129210000Y-73414166D01*
X129574437Y-73174166D02*
X128510000Y-72109729D01*
X131965563Y-73174166D02*
X131830000Y-73174166D01*
X131965563Y-73174166D02*
X133030000Y-72109729D01*
%TO.C,U5*%
X176275000Y-116532500D02*
X177525000Y-116532500D01*
X173025000Y-106252500D02*
X173025000Y-116532500D01*
X173025000Y-116532500D02*
X174275000Y-116532500D01*
X177525000Y-106252500D02*
X173025000Y-106252500D01*
X177525000Y-116532500D02*
X177525000Y-106252500D01*
X176275000Y-116532500D02*
G75*
G03*
X174275000Y-116532500I-1000000J0D01*
G01*
%TO.C,C10*%
X124494437Y-95582500D02*
X124630000Y-95582500D01*
X123430000Y-91062500D02*
X124630000Y-91062500D01*
X124130000Y-96322500D02*
X124130000Y-95822500D01*
X123880000Y-96072500D02*
X124380000Y-96072500D01*
X127950000Y-94518063D02*
X127950000Y-91062500D01*
X123430000Y-94518063D02*
X123430000Y-91062500D01*
X124494437Y-95582500D02*
X123430000Y-94518063D01*
X127950000Y-91062500D02*
X126750000Y-91062500D01*
X126885563Y-95582500D02*
X126750000Y-95582500D01*
X126885563Y-95582500D02*
X127950000Y-94518063D01*
%TO.C,C20*%
X153150000Y-100432500D02*
X153150000Y-101672500D01*
X153630000Y-100487500D02*
X153630000Y-101672500D01*
X153710000Y-103352500D02*
X153710000Y-104517500D01*
X153190000Y-100432500D02*
X153190000Y-101672500D01*
X153510000Y-103352500D02*
X153510000Y-104562500D01*
X154311000Y-103352500D02*
X154311000Y-104247500D01*
X153750000Y-103352500D02*
X153750000Y-104506500D01*
X153590000Y-100478500D02*
X153590000Y-101672500D01*
X153991000Y-103352500D02*
X153991000Y-104419500D01*
X153230000Y-103352500D02*
X153230000Y-104591500D01*
X154671000Y-103352500D02*
X154671000Y-103950500D01*
X153390000Y-103352500D02*
X153390000Y-104579500D01*
X154551000Y-103352500D02*
X154551000Y-104064500D01*
X154911000Y-101370500D02*
X154911000Y-103654500D01*
X153911000Y-100572500D02*
X153911000Y-101672500D01*
X154511000Y-100925500D02*
X154511000Y-101672500D01*
X153951000Y-103352500D02*
X153951000Y-104436500D01*
X154431000Y-100862500D02*
X154431000Y-101672500D01*
X153310000Y-100438500D02*
X153310000Y-101672500D01*
X153190000Y-103352500D02*
X153190000Y-104592500D01*
X154631000Y-101034500D02*
X154631000Y-101672500D01*
X153430000Y-103352500D02*
X153430000Y-104574500D01*
X153230000Y-100433500D02*
X153230000Y-101672500D01*
X153670000Y-100496500D02*
X153670000Y-101672500D01*
X153310000Y-103352500D02*
X153310000Y-104586500D01*
X153911000Y-103352500D02*
X153911000Y-104452500D01*
X154471000Y-103352500D02*
X154471000Y-104131500D01*
X154231000Y-103352500D02*
X154231000Y-104297500D01*
X154511000Y-103352500D02*
X154511000Y-104099500D01*
X153470000Y-100456500D02*
X153470000Y-101672500D01*
X153550000Y-100470500D02*
X153550000Y-101672500D01*
X153830000Y-100544500D02*
X153830000Y-101672500D01*
X154031000Y-103352500D02*
X154031000Y-104401500D01*
X154031000Y-100623500D02*
X154031000Y-101672500D01*
X153670000Y-103352500D02*
X153670000Y-104528500D01*
X154111000Y-103352500D02*
X154111000Y-104363500D01*
X154191000Y-100704500D02*
X154191000Y-101672500D01*
X154551000Y-100960500D02*
X154551000Y-101672500D01*
X155031000Y-101572500D02*
X155031000Y-103452500D01*
X153270000Y-100435500D02*
X153270000Y-101672500D01*
X154271000Y-100752500D02*
X154271000Y-101672500D01*
X153550000Y-103352500D02*
X153550000Y-104554500D01*
X154151000Y-100682500D02*
X154151000Y-101672500D01*
X154871000Y-101312500D02*
X154871000Y-103712500D01*
X153350000Y-103352500D02*
X153350000Y-104583500D01*
X153871000Y-100558500D02*
X153871000Y-101672500D01*
X154271000Y-103352500D02*
X154271000Y-104272500D01*
X155151000Y-101848500D02*
X155151000Y-103176500D01*
X155071000Y-101653500D02*
X155071000Y-103371500D01*
X154751000Y-101161500D02*
X154751000Y-103863500D01*
X153790000Y-100530500D02*
X153790000Y-101672500D01*
X153350000Y-100441500D02*
X153350000Y-101672500D01*
X155191000Y-101975500D02*
X155191000Y-103049500D01*
X154351000Y-103352500D02*
X154351000Y-104220500D01*
X153991000Y-100605500D02*
X153991000Y-101672500D01*
X154791000Y-101208500D02*
X154791000Y-103816500D01*
X154631000Y-103352500D02*
X154631000Y-103990500D01*
X154431000Y-103352500D02*
X154431000Y-104162500D01*
X154351000Y-100804500D02*
X154351000Y-101672500D01*
X154591000Y-100996500D02*
X154591000Y-101672500D01*
X154831000Y-101258500D02*
X154831000Y-103766500D01*
X153830000Y-103352500D02*
X153830000Y-104480500D01*
X154231000Y-100727500D02*
X154231000Y-101672500D01*
X154391000Y-100832500D02*
X154391000Y-101672500D01*
X155111000Y-101744500D02*
X155111000Y-103280500D01*
X153470000Y-103352500D02*
X153470000Y-104568500D01*
X155231000Y-102142500D02*
X155231000Y-102882500D01*
X153510000Y-100462500D02*
X153510000Y-101672500D01*
X151080199Y-101117500D02*
X151080199Y-101517500D01*
X153951000Y-100588500D02*
X153951000Y-101672500D01*
X153390000Y-100445500D02*
X153390000Y-101672500D01*
X154591000Y-103352500D02*
X154591000Y-104028500D01*
X153710000Y-100507500D02*
X153710000Y-101672500D01*
X154071000Y-103352500D02*
X154071000Y-104382500D01*
X154711000Y-101116500D02*
X154711000Y-101672500D01*
X153430000Y-100450500D02*
X153430000Y-101672500D01*
X153790000Y-103352500D02*
X153790000Y-104494500D01*
X154991000Y-101499500D02*
X154991000Y-103525500D01*
X153871000Y-103352500D02*
X153871000Y-104466500D01*
X153750000Y-100518500D02*
X153750000Y-101672500D01*
X154711000Y-103352500D02*
X154711000Y-103908500D01*
X154151000Y-103352500D02*
X154151000Y-104342500D01*
X153150000Y-103352500D02*
X153150000Y-104592500D01*
X154071000Y-100642500D02*
X154071000Y-101672500D01*
X154951000Y-101432500D02*
X154951000Y-103592500D01*
X154391000Y-103352500D02*
X154391000Y-104192500D01*
X154311000Y-100777500D02*
X154311000Y-101672500D01*
X154471000Y-100893500D02*
X154471000Y-101672500D01*
X153630000Y-103352500D02*
X153630000Y-104537500D01*
X154191000Y-103352500D02*
X154191000Y-104320500D01*
X154111000Y-100661500D02*
X154111000Y-101672500D01*
X150880199Y-101317500D02*
X151280199Y-101317500D01*
X154671000Y-101074500D02*
X154671000Y-101672500D01*
X153270000Y-103352500D02*
X153270000Y-104589500D01*
X153590000Y-103352500D02*
X153590000Y-104546500D01*
X155270000Y-102512500D02*
G75*
G03*
X155270000Y-102512500I-2120000J0D01*
G01*
%TO.C,U7*%
X152125000Y-116542500D02*
X152125000Y-106262500D01*
X147625000Y-116542500D02*
X148875000Y-116542500D01*
X147625000Y-106262500D02*
X147625000Y-116542500D01*
X150875000Y-116542500D02*
X152125000Y-116542500D01*
X152125000Y-106262500D02*
X147625000Y-106262500D01*
X150875000Y-116542500D02*
G75*
G03*
X148875000Y-116542500I-1000000J0D01*
G01*
%TO.C,U2*%
X136990000Y-94602500D02*
X136990000Y-92002500D01*
X136340000Y-95302500D02*
X136190000Y-95452500D01*
X136990000Y-94602500D02*
X136740000Y-94852500D01*
X136990000Y-92002500D02*
X136740000Y-91752500D01*
X135240000Y-91202500D02*
X136190000Y-91202500D01*
X136340000Y-91352500D02*
X136190000Y-91202500D01*
X136190000Y-95452500D02*
X135240000Y-95452500D01*
%TO.C,U6*%
X160295000Y-116542500D02*
X164795000Y-116542500D01*
X160295000Y-106262500D02*
X160295000Y-116542500D01*
X164795000Y-106262500D02*
X163545000Y-106262500D01*
X161545000Y-106262500D02*
X160295000Y-106262500D01*
X164795000Y-116542500D02*
X164795000Y-106262500D01*
X161545000Y-106262500D02*
G75*
G03*
X163545000Y-106262500I1000000J0D01*
G01*
%TO.C,C21*%
X134141000Y-99654151D02*
X136120000Y-99654151D01*
X138200000Y-99934151D02*
X140410000Y-99934151D01*
X134873000Y-99014151D02*
X136120000Y-99014151D01*
X138200000Y-99094151D02*
X139560000Y-99094151D01*
X138200000Y-99814151D02*
X140316000Y-99814151D01*
X133355000Y-100934151D02*
X136120000Y-100934151D01*
X133339000Y-100974151D02*
X140981000Y-100974151D01*
X133420000Y-100774151D02*
X136120000Y-100774151D01*
X135270000Y-98774151D02*
X139050000Y-98774151D01*
X138200000Y-100254151D02*
X140629000Y-100254151D01*
X133283000Y-101134151D02*
X141037000Y-101134151D01*
X133438000Y-100734151D02*
X136120000Y-100734151D01*
X134445000Y-106424849D02*
X135245000Y-106424849D01*
X133880000Y-99974151D02*
X136120000Y-99974151D01*
X134994000Y-98934151D02*
X136120000Y-98934151D01*
X138200000Y-100134151D02*
X140552000Y-100134151D01*
X138200000Y-99174151D02*
X139665000Y-99174151D01*
X133158000Y-101614151D02*
X141162000Y-101614151D01*
X133742000Y-100174151D02*
X136120000Y-100174151D01*
X138200000Y-100494151D02*
X140766000Y-100494151D01*
X138200000Y-99974151D02*
X140440000Y-99974151D01*
X136392000Y-98374151D02*
X137928000Y-98374151D01*
X133099000Y-102015151D02*
X141221000Y-102015151D01*
X133080000Y-102375151D02*
X141240000Y-102375151D01*
X133620000Y-100374151D02*
X136120000Y-100374151D01*
X133851000Y-100014151D02*
X136120000Y-100014151D01*
X133235000Y-101294151D02*
X141085000Y-101294151D01*
X134932000Y-98974151D02*
X136120000Y-98974151D01*
X138200000Y-100574151D02*
X140807000Y-100574151D01*
X134004000Y-99814151D02*
X136120000Y-99814151D01*
X133297000Y-101094151D02*
X141023000Y-101094151D01*
X133598000Y-100414151D02*
X136120000Y-100414151D01*
X138200000Y-98894151D02*
X139262000Y-98894151D01*
X138200000Y-99854151D02*
X140349000Y-99854151D01*
X138200000Y-99414151D02*
X139944000Y-99414151D01*
X138200000Y-99654151D02*
X140179000Y-99654151D01*
X133118000Y-101855151D02*
X141202000Y-101855151D01*
X134215000Y-99574151D02*
X136120000Y-99574151D01*
X134177000Y-99614151D02*
X136120000Y-99614151D01*
X138200000Y-99214151D02*
X139716000Y-99214151D01*
X138200000Y-99694151D02*
X140215000Y-99694151D01*
X138200000Y-100654151D02*
X140846000Y-100654151D01*
X135126000Y-98854151D02*
X139194000Y-98854151D01*
X134463000Y-99334151D02*
X136120000Y-99334151D01*
X134036000Y-99774151D02*
X136120000Y-99774151D01*
X133150000Y-101654151D02*
X141170000Y-101654151D01*
X138200000Y-99134151D02*
X139614000Y-99134151D01*
X133203000Y-101414151D02*
X141117000Y-101414151D01*
X138200000Y-99734151D02*
X140250000Y-99734151D01*
X133080000Y-102335151D02*
X141240000Y-102335151D01*
X138200000Y-100174151D02*
X140578000Y-100174151D01*
X138200000Y-100094151D02*
X140525000Y-100094151D01*
X133084000Y-102215151D02*
X141236000Y-102215151D01*
X138200000Y-100454151D02*
X140744000Y-100454151D01*
X134509000Y-99294151D02*
X136120000Y-99294151D01*
X134419000Y-99374151D02*
X136120000Y-99374151D01*
X138200000Y-99374151D02*
X139901000Y-99374151D01*
X138200000Y-100694151D02*
X140864000Y-100694151D01*
X134845000Y-106824849D02*
X134845000Y-106024849D01*
X133940000Y-99894151D02*
X136120000Y-99894151D01*
X133667000Y-100294151D02*
X136120000Y-100294151D01*
X133474000Y-100654151D02*
X136120000Y-100654151D01*
X138200000Y-100414151D02*
X140722000Y-100414151D01*
X138200000Y-99054151D02*
X139505000Y-99054151D01*
X138200000Y-100374151D02*
X140700000Y-100374151D01*
X134253000Y-99534151D02*
X136120000Y-99534151D01*
X138200000Y-99014151D02*
X139447000Y-99014151D01*
X133310000Y-101054151D02*
X141010000Y-101054151D01*
X136062000Y-98454151D02*
X138258000Y-98454151D01*
X138200000Y-100734151D02*
X140882000Y-100734151D01*
X136212000Y-98414151D02*
X138108000Y-98414151D01*
X134556000Y-99254151D02*
X136120000Y-99254151D01*
X134655000Y-99174151D02*
X136120000Y-99174151D01*
X138200000Y-100214151D02*
X140604000Y-100214151D01*
X138200000Y-99494151D02*
X140027000Y-99494151D01*
X133386000Y-100854151D02*
X136120000Y-100854151D01*
X135515000Y-98654151D02*
X138805000Y-98654151D01*
X133130000Y-101775151D02*
X141190000Y-101775151D01*
X133554000Y-100494151D02*
X136120000Y-100494151D01*
X135058000Y-98894151D02*
X136120000Y-98894151D01*
X133325000Y-101014151D02*
X140995000Y-101014151D01*
X133370000Y-100894151D02*
X136120000Y-100894151D01*
X133086000Y-102175151D02*
X141234000Y-102175151D01*
X133768000Y-100134151D02*
X136120000Y-100134151D01*
X133089000Y-102135151D02*
X141231000Y-102135151D01*
X136627000Y-98334151D02*
X137693000Y-98334151D01*
X133081000Y-102295151D02*
X141239000Y-102295151D01*
X133494000Y-100614151D02*
X136120000Y-100614151D01*
X133108000Y-101935151D02*
X141212000Y-101935151D01*
X135814000Y-98534151D02*
X138506000Y-98534151D01*
X135707000Y-98574151D02*
X138613000Y-98574151D01*
X138200000Y-100334151D02*
X140677000Y-100334151D01*
X138200000Y-100614151D02*
X140826000Y-100614151D01*
X138200000Y-100774151D02*
X140900000Y-100774151D01*
X133143000Y-101694151D02*
X141177000Y-101694151D01*
X133822000Y-100054151D02*
X136120000Y-100054151D01*
X138200000Y-98934151D02*
X139326000Y-98934151D01*
X138200000Y-100854151D02*
X140934000Y-100854151D01*
X133513000Y-100574151D02*
X136120000Y-100574151D01*
X133103000Y-101975151D02*
X141217000Y-101975151D01*
X135429000Y-98694151D02*
X138891000Y-98694151D01*
X134760000Y-99094151D02*
X136120000Y-99094151D01*
X133175000Y-101534151D02*
X141145000Y-101534151D01*
X134293000Y-99494151D02*
X136120000Y-99494151D01*
X133095000Y-102055151D02*
X141225000Y-102055151D01*
X138200000Y-99294151D02*
X139811000Y-99294151D01*
X138200000Y-99454151D02*
X139986000Y-99454151D01*
X135608000Y-98614151D02*
X138712000Y-98614151D01*
X133576000Y-100454151D02*
X136120000Y-100454151D01*
X138200000Y-99334151D02*
X139857000Y-99334151D01*
X134376000Y-99414151D02*
X136120000Y-99414151D01*
X134105000Y-99694151D02*
X136120000Y-99694151D01*
X135347000Y-98734151D02*
X138973000Y-98734151D01*
X138200000Y-99534151D02*
X140067000Y-99534151D01*
X133136000Y-101735151D02*
X141184000Y-101735151D01*
X138200000Y-98974151D02*
X139388000Y-98974151D01*
X133184000Y-101494151D02*
X141136000Y-101494151D01*
X133910000Y-99934151D02*
X136120000Y-99934151D01*
X133193000Y-101454151D02*
X141127000Y-101454151D01*
X138200000Y-100894151D02*
X140950000Y-100894151D01*
X138200000Y-99774151D02*
X140284000Y-99774151D01*
X133166000Y-101574151D02*
X141154000Y-101574151D01*
X138200000Y-100054151D02*
X140498000Y-100054151D01*
X133083000Y-102255151D02*
X141237000Y-102255151D01*
X138200000Y-99614151D02*
X140143000Y-99614151D01*
X134706000Y-99134151D02*
X136120000Y-99134151D01*
X133271000Y-101174151D02*
X141049000Y-101174151D01*
X133224000Y-101334151D02*
X141096000Y-101334151D01*
X135196000Y-98814151D02*
X139124000Y-98814151D01*
X138200000Y-100814151D02*
X140917000Y-100814151D01*
X133691000Y-100254151D02*
X136120000Y-100254151D01*
X134334000Y-99454151D02*
X136120000Y-99454151D01*
X133112000Y-101895151D02*
X141208000Y-101895151D01*
X133456000Y-100694151D02*
X136120000Y-100694151D01*
X133213000Y-101374151D02*
X141107000Y-101374151D01*
X134815000Y-99054151D02*
X136120000Y-99054151D01*
X135931000Y-98494151D02*
X138389000Y-98494151D01*
X138200000Y-100014151D02*
X140469000Y-100014151D01*
X133795000Y-100094151D02*
X136120000Y-100094151D01*
X138200000Y-99254151D02*
X139764000Y-99254151D01*
X138200000Y-99894151D02*
X140380000Y-99894151D01*
X133971000Y-99854151D02*
X136120000Y-99854151D01*
X138200000Y-99574151D02*
X140105000Y-99574151D01*
X134604000Y-99214151D02*
X136120000Y-99214151D01*
X133092000Y-102095151D02*
X141228000Y-102095151D01*
X138200000Y-100534151D02*
X140787000Y-100534151D01*
X133080000Y-102415151D02*
X141240000Y-102415151D01*
X133258000Y-101214151D02*
X141062000Y-101214151D01*
X133643000Y-100334151D02*
X136120000Y-100334151D01*
X133123000Y-101815151D02*
X141197000Y-101815151D01*
X133716000Y-100214151D02*
X136120000Y-100214151D01*
X133533000Y-100534151D02*
X136120000Y-100534151D01*
X138200000Y-100294151D02*
X140653000Y-100294151D01*
X133246000Y-101254151D02*
X141074000Y-101254151D01*
X138200000Y-100934151D02*
X140965000Y-100934151D01*
X134070000Y-99734151D02*
X136120000Y-99734151D01*
X133403000Y-100814151D02*
X136120000Y-100814151D01*
X141280000Y-102415151D02*
G75*
G03*
X141280000Y-102415151I-4120000J0D01*
G01*
%TO.C,C19*%
X137440000Y-112922500D02*
X138640000Y-112922500D01*
X140895563Y-108402500D02*
X140760000Y-108402500D01*
X137440000Y-109466937D02*
X137440000Y-112922500D01*
X138504437Y-108402500D02*
X137440000Y-109466937D01*
X141510000Y-107912500D02*
X141010000Y-107912500D01*
X141260000Y-107662500D02*
X141260000Y-108162500D01*
X140895563Y-108402500D02*
X141960000Y-109466937D01*
X141960000Y-112922500D02*
X140760000Y-112922500D01*
X138504437Y-108402500D02*
X138640000Y-108402500D01*
X141960000Y-109466937D02*
X141960000Y-112922500D01*
%TO.C,J1*%
X140400000Y-85732500D02*
X140400000Y-75512500D01*
X138900000Y-75512500D02*
X138900000Y-76512500D01*
X138900000Y-85732500D02*
X138900000Y-84732500D01*
X140400000Y-75512500D02*
X136380000Y-75512500D01*
X138900000Y-76512500D02*
X140400000Y-76512500D01*
X136880000Y-76012500D02*
X138090000Y-76012500D01*
X136380000Y-75512500D02*
X136380000Y-85732500D01*
X140700000Y-86032500D02*
X140700000Y-83532500D01*
X138090000Y-76012500D02*
X138090000Y-75512500D01*
X138900000Y-84732500D02*
X140400000Y-84732500D01*
X138090000Y-85232500D02*
X136880000Y-85232500D01*
X136880000Y-85232500D02*
X136880000Y-76012500D01*
X138200000Y-86032500D02*
X140700000Y-86032500D01*
X138090000Y-85732500D02*
X138090000Y-85232500D01*
X136380000Y-85732500D02*
X140400000Y-85732500D01*
%TO.C,C2*%
X131965563Y-95582500D02*
X131830000Y-95582500D01*
X129210000Y-96322500D02*
X129210000Y-95822500D01*
X128510000Y-94518063D02*
X128510000Y-91062500D01*
X133030000Y-94518063D02*
X133030000Y-91062500D01*
X133030000Y-91062500D02*
X131830000Y-91062500D01*
X129574437Y-95582500D02*
X128510000Y-94518063D01*
X131965563Y-95582500D02*
X133030000Y-94518063D01*
X129574437Y-95582500D02*
X129710000Y-95582500D01*
X128960000Y-96072500D02*
X129460000Y-96072500D01*
X128510000Y-91062500D02*
X129710000Y-91062500D01*
%TO.C,U4*%
X171390000Y-80990000D02*
X181670000Y-80990000D01*
X181670000Y-77740000D02*
X181670000Y-76490000D01*
X181670000Y-76490000D02*
X171390000Y-76490000D01*
X171390000Y-76490000D02*
X171390000Y-80990000D01*
X181670000Y-80990000D02*
X181670000Y-79740000D01*
X181670000Y-77740000D02*
G75*
G03*
X181670000Y-79740000I0J-1000000D01*
G01*
%TO.C,LS1*%
X147250000Y-97560000D02*
X154970000Y-97560000D01*
X147750000Y-95250000D02*
X147750000Y-94040000D01*
X146950000Y-95360000D02*
X146950000Y-97860000D01*
X147250000Y-96060000D02*
X148250000Y-96060000D01*
X154470000Y-95250000D02*
X154970000Y-95250000D01*
X153970000Y-96060000D02*
X153970000Y-97560000D01*
X148250000Y-96060000D02*
X148250000Y-97560000D01*
X154470000Y-94040000D02*
X154470000Y-95250000D01*
X147250000Y-93540000D02*
X147250000Y-97560000D01*
X154970000Y-93540000D02*
X147250000Y-93540000D01*
X147250000Y-95250000D02*
X147750000Y-95250000D01*
X154970000Y-96060000D02*
X153970000Y-96060000D01*
X146950000Y-97860000D02*
X149450000Y-97860000D01*
X147750000Y-94040000D02*
X154470000Y-94040000D01*
X154970000Y-97560000D02*
X154970000Y-93540000D01*
%TO.C,RV2*%
X168440000Y-93740000D02*
X168440000Y-94950000D01*
X158420000Y-97560000D02*
X160920000Y-97560000D01*
X167940000Y-95760000D02*
X167940000Y-97260000D01*
X158720000Y-94950000D02*
X159220000Y-94950000D01*
X158720000Y-97260000D02*
X168940000Y-97260000D01*
X159220000Y-93740000D02*
X168440000Y-93740000D01*
X158720000Y-95760000D02*
X159720000Y-95760000D01*
X168940000Y-93240000D02*
X158720000Y-93240000D01*
X158420000Y-95060000D02*
X158420000Y-97560000D01*
X159720000Y-95760000D02*
X159720000Y-97260000D01*
X168440000Y-94950000D02*
X168940000Y-94950000D01*
X158720000Y-93240000D02*
X158720000Y-97260000D01*
X168940000Y-97260000D02*
X168940000Y-93240000D01*
X168940000Y-95760000D02*
X167940000Y-95760000D01*
X159220000Y-94950000D02*
X159220000Y-93740000D01*
%TO.C,C9*%
X127950000Y-68654166D02*
X126750000Y-68654166D01*
X124130000Y-73914166D02*
X124130000Y-73414166D01*
X127950000Y-72109729D02*
X127950000Y-68654166D01*
X126885563Y-73174166D02*
X126750000Y-73174166D01*
X124494437Y-73174166D02*
X124630000Y-73174166D01*
X123880000Y-73664166D02*
X124380000Y-73664166D01*
X126885563Y-73174166D02*
X127950000Y-72109729D01*
X124494437Y-73174166D02*
X123430000Y-72109729D01*
X123430000Y-72109729D02*
X123430000Y-68654166D01*
X123430000Y-68654166D02*
X124630000Y-68654166D01*
%TO.C,SW1*%
X133380000Y-88612500D02*
X133380000Y-86112500D01*
X131580000Y-87312500D02*
X133080000Y-87312500D01*
X130770000Y-76092500D02*
X130770000Y-75592500D01*
X130770000Y-87812500D02*
X129560000Y-87812500D01*
X130770000Y-88312500D02*
X130770000Y-87812500D01*
X130880000Y-88612500D02*
X133380000Y-88612500D01*
X129060000Y-75592500D02*
X129060000Y-88312500D01*
X133080000Y-88312500D02*
X133080000Y-75592500D01*
X129560000Y-87812500D02*
X129560000Y-76092500D01*
X129060000Y-88312500D02*
X133080000Y-88312500D01*
X131580000Y-75592500D02*
X131580000Y-76592500D01*
X129560000Y-76092500D02*
X130770000Y-76092500D01*
X131580000Y-88312500D02*
X131580000Y-87312500D01*
X131580000Y-76592500D02*
X133080000Y-76592500D01*
X133080000Y-75592500D02*
X129060000Y-75592500D01*
%TD*%
M02*
